^C:\USERS\822\DOCUMENTS\VISUAL STUDIO 2015\PROJECTS\JUEGOZELDA\JUEGOZELDA\JUEGO.CPP|C:\USERS\822\DOCUMENTS\VISUAL STUDIO 2015\PROJECTS\JUEGOZELDA\JUEGOZELDA\MAIN.CPP|C:\USERS\822\DOCUMENTS\VISUAL STUDIO 2015\PROJECTS\JUEGOZELDA\JUEGOZELDA\ZELDA.CPP
C:\USERS\822\DOCUMENTS\VISUAL STUDIO 2015\PROJECTS\JUEGOZELDA\JUEGOZELDA\RELEASE\VC140.PDB
C:\USERS\822\DOCUMENTS\VISUAL STUDIO 2015\PROJECTS\JUEGOZELDA\JUEGOZELDA\RELEASE\ZELDA.OBJ
C:\USERS\822\DOCUMENTS\VISUAL STUDIO 2015\PROJECTS\JUEGOZELDA\JUEGOZELDA\RELEASE\MAIN.OBJ
C:\USERS\822\DOCUMENTS\VISUAL STUDIO 2015\PROJECTS\JUEGOZELDA\JUEGOZELDA\RELEASE\JUEGO.OBJ
^C:\USERS\822\DOCUMENTS\VISUAL STUDIO 2015\PROJECTS\JUEGOZELDA\JUEGOZELDA\JUEGO.CPP
C:\USERS\822\DOCUMENTS\VISUAL STUDIO 2015\PROJECTS\JUEGOZELDA\JUEGOZELDA\RELEASE\VC140.PDB
^C:\USERS\822\DOCUMENTS\VISUAL STUDIO 2015\PROJECTS\JUEGOZELDA\JUEGOZELDA\MAIN.CPP
C:\USERS\822\DOCUMENTS\VISUAL STUDIO 2015\PROJECTS\JUEGOZELDA\JUEGOZELDA\RELEASE\VC140.PDB
^C:\USERS\822\DOCUMENTS\VISUAL STUDIO 2015\PROJECTS\JUEGOZELDA\JUEGOZELDA\ZELDA.CPP
C:\USERS\822\DOCUMENTS\VISUAL STUDIO 2015\PROJECTS\JUEGOZELDA\JUEGOZELDA\RELEASE\VC140.PDB
